('/home/brandonrosano/PycharmProjects/Pygalaga/build/main/PYZ-00.pyz',
 [('pkg_resources',
   '/usr/lib/python3/dist-packages/pkg_resources/__init__.py',
   'PYMODULE'),
  ('pkg_resources._vendor.packaging.requirements',
   '/usr/lib/python3/dist-packages/pkg_resources/_vendor/packaging/requirements.py',
   'PYMODULE'),
  ('string', '/usr/lib/python3.7/string.py', 'PYMODULE'),
  ('pkg_resources._vendor.packaging.markers',
   '/usr/lib/python3/dist-packages/pkg_resources/_vendor/packaging/markers.py',
   'PYMODULE'),
  ('pkg_resources._vendor.pyparsing',
   '/usr/lib/python3/dist-packages/pkg_resources/_vendor/pyparsing.py',
   'PYMODULE'),
  ('uuid', '/usr/lib/python3.7/uuid.py', 'PYMODULE'),
  ('hashlib', '/usr/lib/python3.7/hashlib.py', 'PYMODULE'),
  ('logging', '/usr/lib/python3.7/logging/__init__.py', 'PYMODULE'),
  ('pickle', '/usr/lib/python3.7/pickle.py', 'PYMODULE'),
  ('argparse', '/usr/lib/python3.7/argparse.py', 'PYMODULE'),
  ('gettext', '/usr/lib/python3.7/gettext.py', 'PYMODULE'),
  ('doctest', '/usr/lib/python3.7/doctest.py', 'PYMODULE'),
  ('unittest', '/usr/lib/python3.7/unittest/__init__.py', 'PYMODULE'),
  ('unittest.signals', '/usr/lib/python3.7/unittest/signals.py', 'PYMODULE'),
  ('signal', '/usr/lib/python3.7/signal.py', 'PYMODULE'),
  ('unittest.main', '/usr/lib/python3.7/unittest/main.py', 'PYMODULE'),
  ('unittest.runner', '/usr/lib/python3.7/unittest/runner.py', 'PYMODULE'),
  ('unittest.loader', '/usr/lib/python3.7/unittest/loader.py', 'PYMODULE'),
  ('fnmatch', '/usr/lib/python3.7/fnmatch.py', 'PYMODULE'),
  ('unittest.suite', '/usr/lib/python3.7/unittest/suite.py', 'PYMODULE'),
  ('unittest.case', '/usr/lib/python3.7/unittest/case.py', 'PYMODULE'),
  ('contextlib', '/usr/lib/python3.7/contextlib.py', 'PYMODULE'),
  ('unittest.result', '/usr/lib/python3.7/unittest/result.py', 'PYMODULE'),
  ('unittest.util', '/usr/lib/python3.7/unittest/util.py', 'PYMODULE'),
  ('difflib', '/usr/lib/python3.7/difflib.py', 'PYMODULE'),
  ('_compat_pickle', '/usr/lib/python3.7/_compat_pickle.py', 'PYMODULE'),
  ('struct', '/usr/lib/python3.7/struct.py', 'PYMODULE'),
  ('random', '/usr/lib/python3.7/random.py', 'PYMODULE'),
  ('bisect', '/usr/lib/python3.7/bisect.py', 'PYMODULE'),
  ('ctypes.util', '/usr/lib/python3.7/ctypes/util.py', 'PYMODULE'),
  ('ctypes._aix', '/usr/lib/python3.7/ctypes/_aix.py', 'PYMODULE'),
  ('ctypes', '/usr/lib/python3.7/ctypes/__init__.py', 'PYMODULE'),
  ('ctypes._endian', '/usr/lib/python3.7/ctypes/_endian.py', 'PYMODULE'),
  ('socket', '/usr/lib/python3.7/socket.py', 'PYMODULE'),
  ('selectors', '/usr/lib/python3.7/selectors.py', 'PYMODULE'),
  ('subprocess', '/usr/lib/python3.7/subprocess.py', 'PYMODULE'),
  ('shutil', '/usr/lib/python3.7/shutil.py', 'PYMODULE'),
  ('tarfile', '/usr/lib/python3.7/tarfile.py', 'PYMODULE'),
  ('gzip', '/usr/lib/python3.7/gzip.py', 'PYMODULE'),
  ('_compression', '/usr/lib/python3.7/_compression.py', 'PYMODULE'),
  ('lzma', '/usr/lib/python3.7/lzma.py', 'PYMODULE'),
  ('bz2', '/usr/lib/python3.7/bz2.py', 'PYMODULE'),
  ('pdb', '/usr/lib/python3.7/pdb.py', 'PYMODULE'),
  ('getopt', '/usr/lib/python3.7/getopt.py', 'PYMODULE'),
  ('pydoc', '/usr/lib/python3.7/pydoc.py', 'PYMODULE'),
  ('webbrowser', '/usr/lib/python3.7/webbrowser.py', 'PYMODULE'),
  ('email.message', '/usr/lib/python3.7/email/message.py', 'PYMODULE'),
  ('email.policy', '/usr/lib/python3.7/email/policy.py', 'PYMODULE'),
  ('email.contentmanager',
   '/usr/lib/python3.7/email/contentmanager.py',
   'PYMODULE'),
  ('email.quoprimime', '/usr/lib/python3.7/email/quoprimime.py', 'PYMODULE'),
  ('email.headerregistry',
   '/usr/lib/python3.7/email/headerregistry.py',
   'PYMODULE'),
  ('email._header_value_parser',
   '/usr/lib/python3.7/email/_header_value_parser.py',
   'PYMODULE'),
  ('urllib', '/usr/lib/python3.7/urllib/__init__.py', 'PYMODULE'),
  ('email.iterators', '/usr/lib/python3.7/email/iterators.py', 'PYMODULE'),
  ('email.generator', '/usr/lib/python3.7/email/generator.py', 'PYMODULE'),
  ('email._encoded_words',
   '/usr/lib/python3.7/email/_encoded_words.py',
   'PYMODULE'),
  ('base64', '/usr/lib/python3.7/base64.py', 'PYMODULE'),
  ('email.charset', '/usr/lib/python3.7/email/charset.py', 'PYMODULE'),
  ('email.encoders', '/usr/lib/python3.7/email/encoders.py', 'PYMODULE'),
  ('email.base64mime', '/usr/lib/python3.7/email/base64mime.py', 'PYMODULE'),
  ('email._policybase', '/usr/lib/python3.7/email/_policybase.py', 'PYMODULE'),
  ('email.header', '/usr/lib/python3.7/email/header.py', 'PYMODULE'),
  ('email.errors', '/usr/lib/python3.7/email/errors.py', 'PYMODULE'),
  ('email.utils', '/usr/lib/python3.7/email/utils.py', 'PYMODULE'),
  ('email._parseaddr', '/usr/lib/python3.7/email/_parseaddr.py', 'PYMODULE'),
  ('calendar', '/usr/lib/python3.7/calendar.py', 'PYMODULE'),
  ('email', '/usr/lib/python3.7/email/__init__.py', 'PYMODULE'),
  ('quopri', '/usr/lib/python3.7/quopri.py', 'PYMODULE'),
  ('uu', '/usr/lib/python3.7/uu.py', 'PYMODULE'),
  ('optparse', '/usr/lib/python3.7/optparse.py', 'PYMODULE'),
  ('http.server', '/usr/lib/python3.7/http/server.py', 'PYMODULE'),
  ('http', '/usr/lib/python3.7/http/__init__.py', 'PYMODULE'),
  ('socketserver', '/usr/lib/python3.7/socketserver.py', 'PYMODULE'),
  ('mimetypes', '/usr/lib/python3.7/mimetypes.py', 'PYMODULE'),
  ('http.client', '/usr/lib/python3.7/http/client.py', 'PYMODULE'),
  ('ssl', '/usr/lib/python3.7/ssl.py', 'PYMODULE'),
  ('html', '/usr/lib/python3.7/html/__init__.py', 'PYMODULE'),
  ('html.entities', '/usr/lib/python3.7/html/entities.py', 'PYMODULE'),
  ('pydoc_data.topics', '/usr/lib/python3.7/pydoc_data/topics.py', 'PYMODULE'),
  ('pydoc_data', '/usr/lib/python3.7/pydoc_data/__init__.py', 'PYMODULE'),
  ('tty', '/usr/lib/python3.7/tty.py', 'PYMODULE'),
  ('urllib.parse', '/usr/lib/python3.7/urllib/parse.py', 'PYMODULE'),
  ('tokenize', '/usr/lib/python3.7/tokenize.py', 'PYMODULE'),
  ('token', '/usr/lib/python3.7/token.py', 'PYMODULE'),
  ('importlib.util', '/usr/lib/python3.7/importlib/util.py', 'PYMODULE'),
  ('importlib.abc', '/usr/lib/python3.7/importlib/abc.py', 'PYMODULE'),
  ('importlib', '/usr/lib/python3.7/importlib/__init__.py', 'PYMODULE'),
  ('importlib._bootstrap_external',
   '/usr/lib/python3.7/importlib/_bootstrap_external.py',
   'PYMODULE'),
  ('importlib._bootstrap',
   '/usr/lib/python3.7/importlib/_bootstrap.py',
   'PYMODULE'),
  ('runpy', '/usr/lib/python3.7/runpy.py', 'PYMODULE'),
  ('shlex', '/usr/lib/python3.7/shlex.py', 'PYMODULE'),
  ('glob', '/usr/lib/python3.7/glob.py', 'PYMODULE'),
  ('code', '/usr/lib/python3.7/code.py', 'PYMODULE'),
  ('codeop', '/usr/lib/python3.7/codeop.py', 'PYMODULE'),
  ('dis', '/usr/lib/python3.7/dis.py', 'PYMODULE'),
  ('opcode', '/usr/lib/python3.7/opcode.py', 'PYMODULE'),
  ('bdb', '/usr/lib/python3.7/bdb.py', 'PYMODULE'),
  ('cmd', '/usr/lib/python3.7/cmd.py', 'PYMODULE'),
  ('threading', '/usr/lib/python3.7/threading.py', 'PYMODULE'),
  ('_threading_local', '/usr/lib/python3.7/_threading_local.py', 'PYMODULE'),
  ('datetime', '/usr/lib/python3.7/datetime.py', 'PYMODULE'),
  ('_strptime', '/usr/lib/python3.7/_strptime.py', 'PYMODULE'),
  ('pprint', '/usr/lib/python3.7/pprint.py', 'PYMODULE'),
  ('copy', '/usr/lib/python3.7/copy.py', 'PYMODULE'),
  ('pkg_resources._vendor.appdirs',
   '/usr/lib/python3/dist-packages/pkg_resources/_vendor/appdirs.py',
   'PYMODULE'),
  ('pkg_resources._vendor.packaging.specifiers',
   '/usr/lib/python3/dist-packages/pkg_resources/_vendor/packaging/specifiers.py',
   'PYMODULE'),
  ('pkg_resources._vendor.packaging._compat',
   '/usr/lib/python3/dist-packages/pkg_resources/_vendor/packaging/_compat.py',
   'PYMODULE'),
  ('pkg_resources._vendor.packaging._structures',
   '/usr/lib/python3/dist-packages/pkg_resources/_vendor/packaging/_structures.py',
   'PYMODULE'),
  ('pkg_resources._vendor.packaging',
   '/usr/lib/python3/dist-packages/pkg_resources/_vendor/packaging/__init__.py',
   'PYMODULE'),
  ('pkg_resources._vendor',
   '/usr/lib/python3/dist-packages/pkg_resources/_vendor/__init__.py',
   'PYMODULE'),
  ('pkg_resources._vendor.six',
   '/usr/lib/python3/dist-packages/pkg_resources/_vendor/six.py',
   'PYMODULE'),
  ('pkg_resources._vendor.packaging.version',
   '/usr/lib/python3/dist-packages/pkg_resources/_vendor/packaging/version.py',
   'PYMODULE'),
  ('pkg_resources._vendor.packaging.__about__',
   '/usr/lib/python3/dist-packages/pkg_resources/_vendor/packaging/__about__.py',
   'PYMODULE'),
  ('pkg_resources._vendor.packaging.utils',
   '/usr/lib/python3/dist-packages/pkg_resources/_vendor/packaging/utils.py',
   'PYMODULE'),
  ('sysconfig', '/usr/lib/python3.7/sysconfig.py', 'PYMODULE'),
  ('_sysconfigdata_m_linux_x86_64-linux-gnu',
   '/usr/lib/python3.7/_sysconfigdata_m_linux_x86_64-linux-gnu.py',
   'PYMODULE'),
  ('_osx_support', '/usr/lib/python3.7/_osx_support.py', 'PYMODULE'),
  ('distutils.log', '/usr/lib/python3.7/distutils/log.py', 'PYMODULE'),
  ('distutils', '/usr/lib/python3.7/distutils/__init__.py', 'PYMODULE'),
  ('pkg_resources.py31compat',
   '/usr/lib/python3/dist-packages/pkg_resources/py31compat.py',
   'PYMODULE'),
  ('importlib.machinery',
   '/usr/lib/python3.7/importlib/machinery.py',
   'PYMODULE'),
  ('pkg_resources.extern',
   '/usr/lib/python3/dist-packages/pkg_resources/extern/__init__.py',
   'PYMODULE'),
  ('imp', '/usr/lib/python3.7/imp.py', 'PYMODULE'),
  ('posixpath', '/usr/lib/python3.7/posixpath.py', 'PYMODULE'),
  ('genericpath', '/usr/lib/python3.7/genericpath.py', 'PYMODULE'),
  ('ntpath', '/usr/lib/python3.7/ntpath.py', 'PYMODULE'),
  ('inspect', '/usr/lib/python3.7/inspect.py', 'PYMODULE'),
  ('ast', '/usr/lib/python3.7/ast.py', 'PYMODULE'),
  ('textwrap', '/usr/lib/python3.7/textwrap.py', 'PYMODULE'),
  ('tempfile', '/usr/lib/python3.7/tempfile.py', 'PYMODULE'),
  ('email.parser', '/usr/lib/python3.7/email/parser.py', 'PYMODULE'),
  ('email.feedparser', '/usr/lib/python3.7/email/feedparser.py', 'PYMODULE'),
  ('plistlib', '/usr/lib/python3.7/plistlib.py', 'PYMODULE'),
  ('xml.parsers.expat', '/usr/lib/python3.7/xml/parsers/expat.py', 'PYMODULE'),
  ('xml.parsers', '/usr/lib/python3.7/xml/parsers/__init__.py', 'PYMODULE'),
  ('xml', '/usr/lib/python3.7/xml/__init__.py', 'PYMODULE'),
  ('xml.sax.expatreader',
   '/usr/lib/python3.7/xml/sax/expatreader.py',
   'PYMODULE'),
  ('xml.sax.saxutils', '/usr/lib/python3.7/xml/sax/saxutils.py', 'PYMODULE'),
  ('urllib.request', '/usr/lib/python3.7/urllib/request.py', 'PYMODULE'),
  ('getpass', '/usr/lib/python3.7/getpass.py', 'PYMODULE'),
  ('nturl2path', '/usr/lib/python3.7/nturl2path.py', 'PYMODULE'),
  ('ftplib', '/usr/lib/python3.7/ftplib.py', 'PYMODULE'),
  ('netrc', '/usr/lib/python3.7/netrc.py', 'PYMODULE'),
  ('http.cookiejar', '/usr/lib/python3.7/http/cookiejar.py', 'PYMODULE'),
  ('urllib.response', '/usr/lib/python3.7/urllib/response.py', 'PYMODULE'),
  ('urllib.error', '/usr/lib/python3.7/urllib/error.py', 'PYMODULE'),
  ('xml.sax', '/usr/lib/python3.7/xml/sax/__init__.py', 'PYMODULE'),
  ('xml.sax.handler', '/usr/lib/python3.7/xml/sax/handler.py', 'PYMODULE'),
  ('xml.sax._exceptions',
   '/usr/lib/python3.7/xml/sax/_exceptions.py',
   'PYMODULE'),
  ('xml.sax.xmlreader', '/usr/lib/python3.7/xml/sax/xmlreader.py', 'PYMODULE'),
  ('platform', '/usr/lib/python3.7/platform.py', 'PYMODULE'),
  ('pkgutil', '/usr/lib/python3.7/pkgutil.py', 'PYMODULE'),
  ('stat', '/usr/lib/python3.7/stat.py', 'PYMODULE'),
  ('zipfile', '/usr/lib/python3.7/zipfile.py', 'PYMODULE'),
  ('py_compile', '/usr/lib/python3.7/py_compile.py', 'PYMODULE'),
  ('os', '/usr/lib/python3.7/os.py', 'PYMODULE'),
  ('__future__', '/usr/lib/python3.7/__future__.py', 'PYMODULE'),
  ('typing', '/usr/lib/python3.7/typing.py', 'PYMODULE'),
  ('stringprep', '/usr/lib/python3.7/stringprep.py', 'PYMODULE'),
  ('tracemalloc', '/usr/lib/python3.7/tracemalloc.py', 'PYMODULE'),
  ('_py_abc', '/usr/lib/python3.7/_py_abc.py', 'PYMODULE'),
  ('data.files.event_handler',
   '/home/brandonrosano/PycharmProjects/Pygalaga/data/files/event_handler.py',
   'PYMODULE'),
  ('data.files', '-', 'PYMODULE'),
  ('data', '-', 'PYMODULE'),
  ('data.files.particle_spawner',
   '/home/brandonrosano/PycharmProjects/Pygalaga/data/files/particle_spawner.py',
   'PYMODULE'),
  ('data.files.particle',
   '/home/brandonrosano/PycharmProjects/Pygalaga/data/files/particle.py',
   'PYMODULE'),
  ('data.files.enemy_spawner',
   '/home/brandonrosano/PycharmProjects/Pygalaga/data/files/enemy_spawner.py',
   'PYMODULE'),
  ('data.files.enemy_2',
   '/home/brandonrosano/PycharmProjects/Pygalaga/data/files/enemy_2.py',
   'PYMODULE'),
  ('data.files.bullet',
   '/home/brandonrosano/PycharmProjects/Pygalaga/data/files/bullet.py',
   'PYMODULE'),
  ('data.files.enemy',
   '/home/brandonrosano/PycharmProjects/Pygalaga/data/files/enemy.py',
   'PYMODULE'),
  ('data.files.background',
   '/home/brandonrosano/PycharmProjects/Pygalaga/data/files/background.py',
   'PYMODULE'),
  ('data.files.planet',
   '/home/brandonrosano/PycharmProjects/Pygalaga/data/files/planet.py',
   'PYMODULE'),
  ('data.files.star',
   '/home/brandonrosano/PycharmProjects/Pygalaga/data/files/star.py',
   'PYMODULE'),
  ('data.files.constants',
   '/home/brandonrosano/PycharmProjects/Pygalaga/data/files/constants.py',
   'PYMODULE'),
  ('data.files.ship',
   '/home/brandonrosano/PycharmProjects/Pygalaga/data/files/ship.py',
   'PYMODULE'),
  ('data.files.hud',
   '/home/brandonrosano/PycharmProjects/Pygalaga/data/files/hud.py',
   'PYMODULE'),
  ('data.files.lives',
   '/home/brandonrosano/PycharmProjects/Pygalaga/data/files/lives.py',
   'PYMODULE'),
  ('data.files.score',
   '/home/brandonrosano/PycharmProjects/Pygalaga/data/files/score.py',
   'PYMODULE'),
  ('data.files.heart_icon',
   '/home/brandonrosano/PycharmProjects/Pygalaga/data/files/heart_icon.py',
   'PYMODULE'),
  ('data.files.healthbar',
   '/home/brandonrosano/PycharmProjects/Pygalaga/data/files/healthbar.py',
   'PYMODULE'),
  ('pygame',
   '/home/brandonrosano/.local/lib/python3.7/site-packages/pygame/__init__.py',
   'PYMODULE'),
  ('pygame.colordict',
   '/home/brandonrosano/.local/lib/python3.7/site-packages/pygame/colordict.py',
   'PYMODULE'),
  ('pygame.macosx',
   '/home/brandonrosano/.local/lib/python3.7/site-packages/pygame/macosx.py',
   'PYMODULE'),
  ('pygame.pkgdata',
   '/home/brandonrosano/.local/lib/python3.7/site-packages/pygame/pkgdata.py',
   'PYMODULE'),
  ('pygame.sndarray',
   '/home/brandonrosano/.local/lib/python3.7/site-packages/pygame/sndarray.py',
   'PYMODULE'),
  ('pygame._numpysndarray',
   '/home/brandonrosano/.local/lib/python3.7/site-packages/pygame/_numpysndarray.py',
   'PYMODULE'),
  ('pygame.surfarray',
   '/home/brandonrosano/.local/lib/python3.7/site-packages/pygame/surfarray.py',
   'PYMODULE'),
  ('pygame._numpysurfarray',
   '/home/brandonrosano/.local/lib/python3.7/site-packages/pygame/_numpysurfarray.py',
   'PYMODULE'),
  ('pygame.sysfont',
   '/home/brandonrosano/.local/lib/python3.7/site-packages/pygame/sysfont.py',
   'PYMODULE'),
  ('xml.etree.ElementTree',
   '/usr/lib/python3.7/xml/etree/ElementTree.py',
   'PYMODULE'),
  ('xml.etree.cElementTree',
   '/usr/lib/python3.7/xml/etree/cElementTree.py',
   'PYMODULE'),
  ('xml.etree.ElementInclude',
   '/usr/lib/python3.7/xml/etree/ElementInclude.py',
   'PYMODULE'),
  ('xml.etree.ElementPath',
   '/usr/lib/python3.7/xml/etree/ElementPath.py',
   'PYMODULE'),
  ('xml.etree', '/usr/lib/python3.7/xml/etree/__init__.py', 'PYMODULE'),
  ('pygame.ftfont',
   '/home/brandonrosano/.local/lib/python3.7/site-packages/pygame/ftfont.py',
   'PYMODULE'),
  ('pygame.threads',
   '/home/brandonrosano/.local/lib/python3.7/site-packages/pygame/threads/__init__.py',
   'PYMODULE'),
  ('queue', '/usr/lib/python3.7/queue.py', 'PYMODULE'),
  ('pygame.sprite',
   '/home/brandonrosano/.local/lib/python3.7/site-packages/pygame/sprite.py',
   'PYMODULE'),
  ('pygame.cursors',
   '/home/brandonrosano/.local/lib/python3.7/site-packages/pygame/cursors.py',
   'PYMODULE'),
  ('pygame.compat',
   '/home/brandonrosano/.local/lib/python3.7/site-packages/pygame/compat.py',
   'PYMODULE'),
  ('pygame.version',
   '/home/brandonrosano/.local/lib/python3.7/site-packages/pygame/version.py',
   'PYMODULE')])
